발표자료 | 한국 R 사용자회 - 챗GPT와 데이터 과학
…
api_embedding <- 
  bind_rows(embedding_tbl, translated_embedding) %>% 
  bind_rows(inaugural_eng_embedding)

api_embedding %>% 
  mutate(취임사 = str_sub(취임사, 1, 10)) %>% 
  mutate(임베딩벡터 = map(임베딩, pluck, 1)) %>% 
  mutate(벡터길이 = map_int(임베딩벡터, length)) %>% 
  select(구분, 대통령, 취임사, 임베딩, 임베딩벡터, 벡터길이) 

임베딩 벡터

# A tibble: 31 × 6
   구분        대통령 취임사               임베딩     임베딩벡터    벡터길이
   <chr>       <chr>  <chr>                <list>     <list>           <int>
 1 국문 취임사 이승만 "나의 사랑하는 동포" <list [1]> <dbl [1,536]>     1536
 2 국문 취임사 윤보선 "제2공화국의 초대대" <list [1]> <dbl [1,536]>     1536
 3 국문 취임사 박정희 "친애하는 5천만 동"  <list [1]> <dbl [1,536]>     1536
 4 국문 취임사 최규하 "친애하는 국내외 동" <list [1]> <dbl [1,536]>     1536
 5 국문 취임사 전두환 "친애하는 국내외 동" <list [1]> <dbl [1,536]>     1536
 6 국문 취임사 노태우 "친애하는 6천만 국"  <list [1]> <dbl [1,536]>     1536
 7 국문 취임사 김영삼 "친애하는 7천만 국"  <list [1]> <dbl [1,536]>     1536
 8 국문 취임사 김대중 "존경하고 사랑하는 " <list [1]> <dbl [1,536]>     1536
 9 국문 취임사 노무현 "존경하는 국민 여러" <list [1]> <dbl [1,536]>     1536
10 국문 취임사 이명박 "존경하는 국민 여러" <NULL>     <NULL>               0
# ℹ 21 more rows
…
